<?xml version="1.0"?>
<svg xmlns="http://www.w3.org/2000/svg" xmlns:xlink="http://www.w3.org/1999/xlink" version="1.1" id="Layer_1" x="0px" y="0px" viewBox="0 0 512 512" style="enable-background:new 0 0 512 512;" xml:space="preserve" width="512px" height="512px"><g><g>
	<g>
		<g>
			<path d="M228.375,279.385c-4.042,2.948-5.479,8.302-3.479,12.885c0,0,42.125,96.51,55.542,128.969     c2.313,5.552,5.479,10.354,9.396,14.26c8.313,8.323,19.25,12.479,30.167,12.479s21.854-4.156,30.167-12.479     c8.063-8.052,12.5-18.771,12.5-30.167c0-11.396-4.438-22.115-13-30.646l-107.958-94.708     C237.917,276.688,232.396,276.458,228.375,279.385z" data-original="#000000" class="active-path" data-old_color="#000000" fill="#0275D8"/>
			<circle cx="256" cy="213.333" r="42.667" data-original="#000000" class="active-path" data-old_color="#000000" fill="#0275D8"/>
			<path d="M405.333,0H106.667C83.146,0,64,19.135,64,42.667v426.667C64,492.865,83.146,512,106.667,512h298.667     C428.854,512,448,492.865,448,469.333V42.667C448,19.135,428.854,0,405.333,0z M149.333,448C137.563,448,128,438.427,128,426.667     s9.563-21.333,21.333-21.333c11.771,0,21.333,9.573,21.333,21.333S161.104,448,149.333,448z M349.217,329.518     c-5.123,4.091-5.182,11.853-0.254,16.176l14.766,12.952l1.521,1.417c12.083,12.094,18.75,28.167,18.75,45.271     c0,18.122-7.484,35.087-20.965,47.387c-13.959,12.737-33.555,17.887-52.267,15.251c-23.745-3.344-41.254-17.499-50.018-38.524     c-5.726-13.834-16.647-39.266-27.298-63.902c-1.386-3.206-4.281-5.428-7.701-6.136c-71.888-14.87-125.107-81.408-118.536-159.01     c6.23-73.573,67.759-132.707,141.51-136.226c85.624-4.086,156.607,64.403,156.607,149.159     C405.333,259.645,383.91,301.817,349.217,329.518z" data-original="#000000" class="active-path" data-old_color="#000000" fill="#0275D8"/>
		</g>
	</g>
</g></g> </svg>
